TIME ___ 0
_START TASK 0 :PROC 3 :FREQ 1.0
_START TASK 1 :PROC 0 :FREQ 3.0
TIME ___ 1
TIME ___ 2
___END TASK 1 :PROC 0
TIME ___ 3
_START TASK 2 :PROC 0 :FREQ 2.0
TIME ___ 4
TIME ___ 5
___END TASK 0 :PROC 3
_START TASK 3 :PROC 3 :FREQ 1.0
_START TASK 4 :PROC 1 :FREQ 1.0
TIME ___ 6
___END TASK 2 :PROC 0
_START TASK 6 :PROC 2 :FREQ 1.0
TIME ___ 7
TIME ___ 8
TIME ___ 9
TIME ___ 10
___END TASK 3 :PROC 3
_START TASK 5 :PROC 3 :FREQ 3.0
_START TASK 7 :PROC 0 :FREQ 3.0
TIME ___ 11
___END TASK 5 :PROC 3
_START TASK 8 :PROC 3 :FREQ 3.0
TIME ___ 12
___END TASK 8 :PROC 3
_START TASK 9 :PROC 3 :FREQ 1.0
TIME ___ 13
TIME ___ 14
___END TASK 7 :PROC 0
_START TASK 2P :PROC 0 :FREQ 2.0
TIME ___ 15
___END TASK 4 :PROC 1
___END TASK 9 :PROC 3
TIME ___ 16
TIME ___ 17
___END TASK 2P :PROC 0
TIME ___ 18
TIME ___ 19
TIME ___ 20
_START TASK 1P :PROC 3 :FREQ 3.0
TIME ___ 21
___END TASK 1P :PROC 3
TIME ___ 22
TIME ___ 23
TIME ___ 24
TIME ___ 25
TIME ___ 26
___END TASK 6 :PROC 2
TIME ___ 27
TIME ___ 28
TIME ___ 29
TIME ___ 30
TIME ___ 31
TIME ___ 32
TIME ___ 33
TIME ___ 34
TIME ___ 35
TIME ___ 36
TIME ___ 37
TIME ___ 38
TIME ___ 39
TIME ___ 40
TIME ___ 41
TIME ___ 42
TIME ___ 43
TIME ___ 44
TIME ___ 45
TIME ___ 46
TIME ___ 47
TIME ___ 48
TIME ___ 49
TIME ___ 50
TIME ___ 51
TIME ___ 52
TIME ___ 53
TIME ___ 54
TIME ___ 55
TIME ___ 56
TIME ___ 57
TIME ___ 58
TIME ___ 59
TIME ___ 60
_START TASK 7P :PROC 3 :FREQ 3.0
TIME ___ 61
TIME ___ 62
___END TASK 7P :PROC 3
TIME ___ 63
TIME ___ 64
TIME ___ 65
TIME ___ 66
TIME ___ 67
TIME ___ 68
TIME ___ 69
TIME ___ 70
TIME ___ 71
TIME ___ 72
TIME ___ 73
TIME ___ 74
TIME ___ 75
TIME ___ 76
TIME ___ 77
TIME ___ 78
TIME ___ 79
TIME ___ 80
TIME ___ 81
TIME ___ 82
TIME ___ 83
TIME ___ 84
TIME ___ 85
TIME ___ 86
TIME ___ 87
TIME ___ 88
TIME ___ 89
TIME ___ 90
TIME ___ 91
TIME ___ 92
TIME ___ 93
TIME ___ 94
TIME ___ 95
TIME ___ 96
TIME ___ 97
TIME ___ 98
TIME ___ 99
TIME ___ 100
TIME ___ 101
TIME ___ 102
TIME ___ 103
TIME ___ 104
TIME ___ 105
TIME ___ 106
_START TASK 6P :PROC 3 :FREQ 1.0
TIME ___ 107
TIME ___ 108
TIME ___ 109
TIME ___ 110
TIME ___ 111
TIME ___ 112
TIME ___ 113
TIME ___ 114
TIME ___ 115
TIME ___ 116
___END TASK 6P :PROC 3

*********************END of SchedulerGreedy ********************************************
DEADLINE VIOLATION:0, ENERGY_CONSUMPTION:23200.0, MAX POWER CONSUMPTION480.0
